Lab Comp/simulation/qsim/labcomp.msim.vcd
$comment
	File created using the following command:
		vcd file labcomp.msim.vcd -direction
$end
$date
	Tue Oct 29 09:35:10 2024
$end
$version
	ModelSim Version 2019.2
$end
$timescale
	1ps
$end

$scope module labcomp_vhd_vec_tst $end
$var wire 1 ! F $end
$var wire 1 " W $end
$var wire 1 # X $end
$var wire 1 $ Y $end
$var wire 1 % Z $end

$scope module i1 $end
$var wire 1 & gnd $end
$var wire 1 ' vcc $end
$var wire 1 ( unknown $end
$var wire 1 ) devoe $end
$var wire 1 * devclrn $end
$var wire 1 + devpor $end
$var wire 1 , ww_devoe $end
$var wire 1 - ww_devclrn $end
$var wire 1 . ww_devpor $end
$var wire 1 / ww_F $end
$var wire 1 0 ww_W $end
$var wire 1 1 ww_Z $end
$var wire 1 2 ww_X $end
$var wire 1 3 ww_Y $end
$var wire 1 4 \~QUARTUS_CREATED_GND~I_combout\ $end
$var wire 1 5 \X~input_o\ $end
$var wire 1 6 \Y~input_o\ $end
$var wire 1 7 \Z~input_o\ $end
$var wire 1 8 \W~input_o\ $end
$var wire 1 9 \inst8~0_combout\ $end
$var wire 1 : \ALT_INV_Y~input_o\ $end
$var wire 1 ; \ALT_INV_X~input_o\ $end
$var wire 1 < \ALT_INV_Z~input_o\ $end
$var wire 1 = \ALT_INV_W~input_o\ $end
$upscope $end
$upscope $end
$enddefinitions $end
#0
$dumpvars
0!
0"
0#
0$
0%
0&
1'
x(
1)
1*
1+
1,
1-
1.
0/
00
01
02
03
x4
05
06
07
08
09
1:
1;
1<
1=
$end
#10000
1%
11
17
0<
19
1/
1!
#20000
0%
1$
01
13
16
07
0:
1<
09
0/
0!
#30000
1%
11
17
0<
19
1/
1!
#40000
0%
0$
01
03
06
07
1:
1<
09
0/
0!
#50000
1%
1#
11
12
15
17
0;
0<
19
1/
1!
#60000
0%
1$
01
13
16
07
0:
1<
09
0/
0!
#70000
1%
11
17
0<
19
1/
1!
#80000
0%
0$
01
03
06
07
1:
1<
#90000
1%
11
17
0<
#100000
0%
1$
0#
1"
01
13
02
10
18
05
16
07
0=
1;
0:
1<
#110000
1%
11
17
0<
09
0/
0!
#120000
0%
0$
01
03
06
07
1:
1<
#130000
1%
11
17
0<
19
1/
1!
#140000
0%
1$
01
13
16
07
0:
1<
#150000
1%
1#
11
12
15
17
0;
0<
09
0/
0!
#160000
0%
0$
01
03
06
07
1:
1<
#170000
1%
11
17
0<
#180000
0%
1$
01
13
16
07
0:
1<
#190000
1%
11
17
0<
